year,t1,t2,t3,t4,t5,t6,t7,t8,t9,t10,t11,t12
1961,5.41,6.4,8.75,13.61,17.28,21.87,25.97,24.51,20.25,14.78,10.62,7.86
1962,4.49,5.95,8.03,12.92,16.5,21.96,25.93,25.29,19.85,14.6,9.31,5.14
1963,5.86,7.27,8.62,11.89,17.18,22.09,25.48,24.81,20.35,14.03,10.74,4.87
1964,5.51,4.95,7.97,13.22,16.94,21.79,25.17,24.74,20.92,15.28,11.05,5.95
1965,4.48,5.13,8.32,11.85,16.58,22.58,25.43,24.53,20.42,14.09,10.21,6.77
1966,5.55,5.52,8.83,12,16.74,21.59,25.23,25.71,20.19,13.06,9,6.4
1967,6.47,5.85,8.54,12.12,17.07,21.59,25.04,24.84,20.4,15.77,10.76,6.39
1968,4.54,5.35,8.59,12.21,16.33,21.28,25.2,25.3,20.29,13.5,9.54,4.89
1969,5.57,7.07,8.52,12.23,17.18,20.8,24.46,23.84,19.95,15.14,8.83,6.75
1970,4.91,6.87,9.45,12.21,16.44,22.04,24.65,24.56,19.61,14.75,8.17,6.14
1971,2.72,4.79,8.16,11.07,16.49,21.62,23.81,23.84,19.04,15.46,8.53,7.36
1972,4.89,5.04,8.28,12.02,16.48,20.95,25.17,24.47,20.23,13.5,10.14,5.56
1973,4.31,6.78,8.85,11.6,17.41,22.25,25.31,24.77,20.79,15.05,10.95,5.02
1974,3.27,6.08,8.56,12.6,16.58,21.8,25.28,25.04,20.27,14.25,9.54,4.89
1975,4.27,6.7,8.65,12.62,16.82,21.44,24.99,25,19.74,15.07,9.89,5.67
1976,4.65,5.92,8.75,11.6,17.05,21.69,25.29,25.55,20.06,14.79,10.31,8.24
1977,4,4.56,7.88,11.57,16.38,22.2,24.66,24.93,20.41,14.36,10.25,6.73
1978,4.87,5.13,7.67,12.96,17.79,23.27,26.15,24.24,19.46,15.49,10.4,5.96
1979,5.45,4.98,8.22,11.68,16.87,21.37,25.37,24.42,20.44,14.35,10.36,6.31
1980,5.54,5.67,8.19,12.63,16.88,23.4,25.47,24.64,20.44,13.99,9.15,7.07
1981,7.36,4.37,8.16,12.2,16.75,21.95,25.94,24.73,20,13.79,10.67,7.18
1982,5.99,4.56,7.92,11.46,16.19,20.6,24.36,23.84,19.25,14.91,8.53,6.32
1983,4.9,5.33,8.61,12.4,16.67,21.5,25.31,24.83,20.24,15.75,9.99,4.65
1984,4.95,6.57,8.99,12.32,16.96,21.39,25.19,24.65,19.98,13.24,9.08,5.07
1985,4.28,4.52,8.58,11.88,17.37,21.61,25.8,25.3,19.68,14.5,10.73,6.7
1986,5.35,5.9,8.54,11.61,16.34,22.37,25.03,25.1,20.74,15.05,9.51,6.84
1987,5.74,5.77,9.16,12.13,16.85,22.74,26.51,24.67,20.66,14.45,9.46,5.7
1988,4.59,6.06,7.48,12.72,17.06,22.25,25.67,24.66,20.73,14.35,8.9,5.35
1989,5.39,4.11,8.51,12.18,17.56,22.62,25.67,26.13,19.7,13.3,10.7,5.19
1990,6.06,5.4,8.59,12.42,17.53,22.64,25.77,26.1,20.88,13.9,9.58,6.03
1991,5.93,7.12,8.34,12.11,17.03,22.32,25.3,25.8,21.73,14.67,9.56,6.78
1992,6.22,6.45,9.28,12.81,18.9,22.8,26.08,26.59,21.46,15.68,9.7,6.2
1993,5.69,5.86,9.57,13.1,17.95,23.17,26.68,26.06,21.58,16.15,10.6,5.12
1994,5.25,7.14,7.97,12.94,17.74,22.47,25.26,24.5,19.98,14.73,8.28,5.41
1995,4.88,6,8.42,12.68,17.18,22.13,25.75,24.81,20.69,16.04,11.43,4.94
1996,5.53,6.49,9.22,12.41,17.68,22.65,25.72,25.85,20.98,14.95,9.57,5.95
1997,3.45,6.47,9.12,13.15,17.96,23.04,25.33,25.59,21.43,14.85,10.36,6.1
1998,6.05,7.34,9.17,13.52,17.13,22.79,25.76,26.04,21.18,15.64,10.92,7.2
1999,7.43,7.19,9.84,13.46,17.22,22.68,25.69,25.06,21.23,14.87,10.31,6.78
2000,6.06,8.12,10.44,13.04,16.88,22.52,24.88,24.81,19.66,14.76,11.85,6.88
2001,7.23,5.1,8.66,12.92,17.82,21.69,26.17,25.74,20.47,14.41,9.19,6.13
2002,6.19,5.9,8.9,12.95,17.56,22.22,25.79,25.05,21.25,15.67,11.3,4.87
2003,5.72,6.53,8.81,12.52,18.36,23.22,27.87,25.85,20.89,14.5,9.85,7.78
2004,5.72,5.75,8.82,13.43,18.2,22.84,26.29,25.66,21.1,15.79,10.3,6.35
2005,5.15,6.16,9.32,12.54,16.86,23.24,25.73,26.1,20.96,15.29,10.61,6.79
2006,6.82,7.32,8.66,12.38,16.74,22.2,25.7,25.47,20.83,15.84,8.86,6.32
2007,6.06,6.88,9.37,12.09,16.89,22.76,26.56,25.19,20.98,15.74,10.72,5.6
2008,3.05,4.86,9.27,12.51,17.01,23.08,25.27,25.96,21.8,16.22,10.97,7.76
2009,6.25,7.12,9.13,13.49,18.29,23.69,27.13,26.52,21.01,16.42,10.38,5.5
2010,6.72,7.81,8.73,12.59,17.35,22.63,26.29,26.46,21.2,15.54,10.25,5.66
2011,4.49,5.92,8.84,12.53,16.98,22.3,26.38,25.76,20.96,14.57,10.01,7.73
2012,5.5,5.24,9.17,12.46,18.28,22.47,26.75,26.34,22.37,15.51,10.18,7.63
2013,6.71,7.7,9.11,12.59,18.2,23.35,26.4,25.44,21.55,15.59,10.88,5.49
2014,5.19,6.26,8.72,12.95,17.29,22.54,26.06,25.31,20.82,15.98,11.38,7.24
2015,5.08,4.22,8.39,12.36,17.47,22.88,25.68,25.8,20.39,15.43,8.86,6.6
2016,6.97,6.64,10.44,12.56,16.7,22.94,25.96,25.47,22.07,16.06,9.43,8.32
2017,5.13,6.09,10.32,14,17.88,23.31,26.04,25.55,21.53,15.6,11.64,6.44
2018,5.8,6.81,8.65,12.21,18.01,22.59,26.77,26.55,21.99,15.51,9.7,6.96
2019,5.15,6.73,9.43,12.4,18.51,22.21,26.21,26.46,22.34,15.71,9.55,4.74
2020,5.5,5.89,9.2,13.28,18.2,21.57,26.72,25.86,20.78,15.23,9.2,6.14
2021,5.55,6.08,7.34,12.62,17.58,22.16,25.82,25.86,21.36,14.72,11.31,5.06
2022,5.19,6.33,8.41,12.37,18.33,22.97,26.76,26.12,21.41,16.23,10.76,5.13
2023,5.65,5.72,9.98,13.65,17.62,22.3,26.01,26.61,22.1,15.65,10.54,7.34
2024,5.83,6.21,9.45,12.74,18.3,23.56,27.12,26.25,21.46,15.92,10.64,8.3
2025,5.81,7.29,9.34,13.54,18.01,24.13,27.07,26.52,21.36,15.78,9.63,8.06
2026,6.89,6.99,9.93,12.82,17.71,22.96,26.35,25.93,20.47,14.67,10.47,7.34
2027,5.37,6.71,9.25,12.67,17.86,23.59,26.96,25.31,21.97,16.42,10.48,6.73
2028,5.92,7.54,9.26,13.55,18.46,23.32,25.72,25.59,22.05,16.68,11.27,7.8
2029,5.51,7.33,9.88,13.27,17.95,23.34,26.44,26.96,22.25,16.77,10.52,7.13
2030,4.31,7.09,9.14,13.3,17.63,24.29,26.56,26.96,22.46,16.45,9.52,6.98
2031,5.81,6.43,9.35,12.9,18.44,23.15,27.47,28.13,23.16,16.71,11.2,7.18
2032,6.26,6.87,9.5,13.19,18.99,25.01,27.76,27.96,23.61,16.49,11.31,7.46
2033,7.19,7.49,9.23,13.14,19.03,23.54,27.86,26.83,21.83,17.1,11.63,6.45
2034,6.74,6.72,9.81,13.17,18.56,24.91,27.8,26.31,22.47,16.17,11.03,7.4
2035,6.86,7.31,9.49,13.53,18.29,25.64,28.12,27.75,22.38,16.51,10.32,6.82
2036,6.67,6.61,10.32,13.35,18.01,24.26,26.96,26.83,21.89,15.12,10.33,8.42
2037,6.67,7.54,10.15,13.16,18.68,24.63,27.74,27.43,22.73,17.19,11.84,7.28
2038,6.67,7.19,10.1,14.34,18.9,23.77,28.53,27.09,22.12,16.89,9.49,6.96
2039,6.86,7.4,9.14,13.59,18.04,24.57,27.71,26.83,23.01,16.39,11.13,7.37
2040,7.11,6.95,9.53,13.23,19.01,23.74,27.51,27.33,22.76,16.65,10.27,8.29
2041,6.65,7.47,9.3,13.55,18.02,23.94,27.75,27.01,22.04,16.59,10.98,8.19
2042,6.83,5.82,9.89,13.09,18.6,23.49,27.33,27.12,21.99,16.16,10.55,7.79
2043,6.43,7.87,11.25,13.34,18.97,24.54,27.69,28.56,22.51,17.42,10.13,7.63
2044,6.58,7.19,9.46,13.75,19.28,24.66,28.94,27.93,22.79,16.93,11.52,5.98
2045,8.04,6.5,9.18,13.73,18.48,24.19,28.44,27.22,21.87,16.63,10.53,8.15
2046,7.31,6.92,10.37,13.75,19.08,24.92,27.89,27.84,22.09,16.52,12.83,7.98
2047,7.12,6.94,10.71,14.13,18.79,24.4,27.88,28.05,22.55,16.74,11.61,7.45
2048,5.41,7,10.91,14.15,19.01,24.93,28.11,27.7,23.71,18.01,12.02,7.32
2049,7.2,8.17,10.61,14.34,19.86,25.12,28.1,27.32,22.78,16.21,11.44,9.81
2050,7.5,7.67,9.93,13.73,18.58,23.88,27.19,27.2,22.69,17.97,13.19,9.69
2051,5.42,7.24,10.42,14.31,19.35,24.56,27.82,26.92,22.43,16.41,9.97,7.47
2052,7.34,6.81,10.37,15.41,20.41,26.01,28.35,27.76,22.02,16.93,10.34,8.54
2053,8.22,7.88,10.26,14.36,19.6,25.58,28.76,27.96,23.38,17.01,12.82,8.14
2054,7.58,9.1,10.45,13.49,19.71,25,28.99,28.11,23.33,15.64,11.5,8.08
2055,7.08,7.73,10.71,13.87,19.66,24.41,28.65,28.74,23.25,16.33,12.03,8.06
2056,6.71,8.54,10.88,15.05,19.32,25.51,28.8,27.67,22.94,17.03,13.06,7.51
2057,6.72,7.26,9.97,13.95,19.56,24.85,29.19,28.1,23.74,17.08,11.96,8.5
2058,6.95,8.69,11.09,13.73,18.97,23.86,28.33,27.93,23.93,17.3,13,6.77
2059,7.29,8.5,10.36,14.2,19.24,24.2,28.47,27.25,23.96,16.33,11.82,8.11
2060,7.65,6.94,9.28,14.26,19.42,24.74,27.98,27.99,22.88,17.39,11.49,8.62
2061,6.19,8.4,10.41,13.93,19.4,25.12,28.33,28.69,22.81,16.69,11.97,9.36
2062,5.35,8.02,10.46,15.23,20.04,25.9,29.06,28.14,23.46,17.5,10.76,8.2
2063,8.25,7.62,10.67,14.29,19.85,25.45,28.89,28.13,24.11,17.76,11.52,8.8
2064,5.5,9.07,10.95,15.05,19.83,25.4,29.28,28.48,23.54,16.08,12.17,8.77
2065,7.76,8.92,11.63,14.81,19.66,25.04,29.65,28.78,23.89,17.93,9.64,8.02
2066,6.64,8.46,12.35,15.5,20.57,26.3,29.36,28.77,23.66,17.4,12.92,8.4
2067,7.57,6.86,11.06,15.1,19.62,25.88,28.75,28.86,24.59,17.07,12.37,7.66
2068,6.6,8.21,10.68,13.93,19.85,24.94,28.72,28.37,24.36,17.2,12.78,8.09
2069,7.78,8.91,10.41,13.38,19.88,26.35,29.28,28.6,23.16,16.82,12.26,6.96
2070,7.97,6.61,9.68,15.45,21.17,26.48,29.93,28.63,23.82,16.78,10.34,8.57
2071,7.91,7.19,10.96,13.92,20.23,25.35,29.22,27.94,22.97,17.08,10.27,7.63
2072,7.97,9.56,11.78,14.56,20.46,25.53,29.72,28.78,24.01,16.32,10.61,7.19
2073,6.36,6.73,10.42,14.65,19.66,25.57,29.08,29.32,24.11,16.87,13.29,6.55
2074,6.48,6.49,9.25,14.74,19.61,25.46,29.06,28.71,24.53,17.56,12.95,7.07
2075,7.64,8.42,10.56,14.17,19.66,25.31,28.77,28.31,25.38,17.12,10.81,7.58
2076,8.57,8.69,9.92,14.45,20.02,25.12,29.98,29.25,24,18.28,12.47,8.72
2077,5.13,8.05,11.06,14.19,20.09,26.4,30.15,28.95,24.1,17.95,12.25,7.7
2078,6.93,8.48,11.76,14.82,20.28,25.77,30.02,29.07,23.84,18.28,13.1,9.54
2079,8,9.32,10.6,15.46,20.9,24.97,28.92,29.1,24.28,18.33,11.1,10.31
2080,7.43,8.99,12.15,15.88,21.67,27.43,30.36,29.64,24.35,18.83,13.25,7.69
2081,7.38,7.13,11.81,15.66,20.1,26.55,30.04,29.27,24.44,17.77,12.35,8.67
2082,8.62,7.39,10.33,15.53,20.94,26.15,29.98,29.78,23.84,18.1,12.57,8.95
2083,8.9,8.32,11.21,15.62,20.32,26.17,29.3,29.36,24.06,16.69,11.83,8.96
2084,7.73,7.74,10.68,14.76,20.46,26.47,30.06,29.16,23.7,17.29,12.98,8.75
2085,8.92,7.82,11.06,15.16,20.17,25.72,30.07,28.86,23.86,17.46,12.66,8.05
2086,6.56,9.47,11.32,15.17,20.72,26.59,30.91,29.08,24.21,17.09,12.49,9.71
2087,8.14,9.58,11.61,15.03,20.02,25.64,29.36,28.71,25.05,17.52,12.67,7.51
2088,8.64,9.48,11.06,15.09,20.47,26.3,30.58,29.93,25.05,18.12,12.97,10.06
2089,9.55,10.13,12.12,15.2,19.85,26.75,30.89,30.25,24.11,18.29,12.64,9.6
2090,8.75,8.59,12.76,15.57,20.81,27.06,30.56,30.42,24.96,18.74,12.19,10.84
2091,8.15,8.94,12.09,15.99,21.62,26.95,29.93,28.9,23.87,17.87,13.11,9.3
2092,8.63,9.24,10.99,15.45,20.04,25.49,29.8,28.73,24.46,18.54,12.81,8.93
2093,9.06,10.76,11.94,14.71,21.12,25.24,29.01,28.82,23.75,16.84,12.51,9.28
2094,8.24,7.58,11.91,14.38,21.08,26.5,29.68,28.94,23.56,17.95,14.27,10.74
2095,7.4,8.78,11.04,15.57,21.51,26.28,30.59,28.34,23.66,18.96,12.82,8.91
2096,6.25,9.09,11.82,15.65,21.82,26.13,30.31,29.63,24.43,19.55,13.62,-14.64
